................
----------------------------------------------------------------------
Ran 16 tests in 0.002s

OK
Name               Stmts   Miss Branch BrPart  Cover   Missing
--------------------------------------------------------------
Diplomacy.py          70      0     56      0   100%
TestDiplomacy.py      74      0      2      1    99%   154->exit
--------------------------------------------------------------
TOTAL                144      0     58      1    99%
