...
----------------------------------------------------------------------
Ran 3 tests in 0.001s

OK
Name               Stmts   Miss Branch BrPart  Cover   Missing
--------------------------------------------------------------
Diplomacy.py          81      0     42      1    99%   102->107
TestDiplomacy.py      27      0      2      1    97%   34->exit
--------------------------------------------------------------
TOTAL                108      0     44      2    99%
